<svg style="display:none">
<symbol id="logo" viewBox="0 0 100 100">
<path d="M3.01366 33.5785C3.01366 33.5785-6.83407 76.9957 36.2947 88.8326C83.5819 101.811 96.8172 54.6521 96.8172 54.6521C96.8172 54.6521 77.671 68.7869 46.5745 61.334C12.9993 53.2871 3.01366 33.5785 3.01366 33.5785Z" fill="#08213c" fill-rule="evenodd" opacity="1" stroke="none"/>
<path d="M83.0657 46.4932C78.7925 46.8595 75.2299 52.9403 80.3764 54.2376C88.0854 56.1809 99.1856 44.9427 90.2969 40.736C74.7104 33.3595 67.4053 55.2149 54.3268 57.2721C47.0331 58.4193 34.7629 54.5882 34.6968 47.9343C34.6312 41.324 47.758 42.5554 51.0674 46.3306C51.696 47.0477 52.3484 51.2849 50.1708 50.9159M26.268 35.8113C28.3182 40.0242 23.6599 44.8234 19.514 43.8158C9.77388 41.4485 8.71419 25.971 18.0933 22.6021C30.7581 18.0529 50.9075 36.7284 65.2491 37.2962C70.3276 37.4972 81.0444 36.7523 82.0594 29.8102C83.0656 22.9286 71.4535 25.3177 68.3789 26.3598C59.3224 29.4293 43.9416 45.3431 34.9623 34.2253C30.7583 29.0202 33.8336 18.5385 40.7878 18.1762C45.8812 17.9109 50.3518 20.3436 55.0358 22.4451C57.804 23.6872 62.4543 23.5978 64.7324 20.72C68.9731 15.363 58.1636 9.8571 52.3489 15.7281" fill="none" fill-rule="evenodd" opacity="1" stroke="#08213c" stroke-linecap="round" stroke-linejoin="round" stroke-width="3.11649"/>
</symbol>
</svg>
